lab2/timing2_2.vcd
$date
	Fri May  4 05:27:48 2018
$end
$version
	Icarus Verilog
$end
$timescale
	1ps
$end
$scope module dassign2_2_tb $end
$var wire 1 ! clk $end
$var wire 1 " ready $end
$var wire 1 # short $end
$var wire 1 $ type $end
$var wire 8 % width [7:0] $end
$var integer 32 & i [31:0] $end
$var reg 1 ' in $end
$scope module clock_gen $end
$var reg 1 ( clk $end
$upscope $end
$scope module pulse_width $end
$var wire 1 ! clk $end
$var wire 1 ) in $end
$var wire 1 # long $end
$var wire 8 * mux_to_reg [7:0] $end
$var wire 1 " new $end
$var wire 1 + prev_in $end
$var wire 8 , pwidth [7:0] $end
$var wire 8 - reg_to_counter [7:0] $end
$var wire 1 $ type $end
$scope module get_prev $end
$var wire 1 ! clk $end
$var wire 8 . d [7:0] $end
$var reg 8 / q [7:0] $end
$upscope $end
$scope module check_continuity $end
$var wire 8 0 a [7:0] $end
$var wire 8 1 b [7:0] $end
$var wire 1 " sel $end
$var wire 8 2 y [7:0] $end
$upscope $end
$scope module wait_reg $end
$var wire 1 ! clk $end
$var wire 8 3 d [7:0] $end
$var reg 8 4 q [7:0] $end
$upscope $end
$upscope $end
$upscope $end
$scope module deserializer $end
$var wire 1 5 clk $end
$var wire 2 6 cmd [1:0] $end
$var wire 1 7 done $end
$var wire 1 8 in $end
$var wire 1 9 long $end
$var wire 1 : new $end
$var wire 8 ; out0 [7:0] $end
$var wire 8 < out1 [7:0] $end
$var wire 8 = out2 [7:0] $end
$var wire 8 > out3 [7:0] $end
$var wire 8 ? pwidth [7:0] $end
$var wire 1 @ type $end
$scope module width_measure $end
$var wire 1 5 clk $end
$var wire 1 8 in $end
$var wire 1 9 long $end
$var wire 8 A mux_to_reg [7:0] $end
$var wire 1 : new $end
$var wire 1 B prev_in $end
$var wire 8 C pwidth [7:0] $end
$var wire 8 D reg_to_counter [7:0] $end
$var wire 1 @ type $end
$scope module get_prev $end
$var wire 1 5 clk $end
$var wire 8 E d [7:0] $end
$var reg 8 F q [7:0] $end
$upscope $end
$scope module check_continuity $end
$var wire 8 G a [7:0] $end
$var wire 8 H b [7:0] $end
$var wire 1 : sel $end
$var wire 8 I y [7:0] $end
$upscope $end
$scope module wait_reg $end
$var wire 1 5 clk $end
$var wire 8 J d [7:0] $end
$var reg 8 K q [7:0] $end
$upscope $end
$upscope $end
$scope module shifter $end
$var wire 1 5 clk $end
$var wire 2 L cmd [1:0] $end
$var wire 1 M in $end
$var wire 1 N mux_1_to_reg $end
$var wire 1 O mux_2_to_reg $end
$var wire 1 P mux_3_to_reg $end
$var wire 1 Q mux_4_to_reg $end
$var wire 1 R out0 $end
$var wire 1 S out1 $end
$var wire 1 T out2 $end
$var wire 1 U out3 $end
$scope module mux_1 $end
$var wire 1 V a $end
$var wire 1 M b $end
$var wire 1 R c $end
$var wire 1 M d $end
$var wire 2 W sel [1:0] $end
$var reg 1 X y $end
$upscope $end
$scope module mux_2 $end
$var wire 1 Y a $end
$var wire 1 R b $end
$var wire 1 S c $end
$var wire 1 S d $end
$var wire 2 Z sel [1:0] $end
$var reg 1 [ y $end
$upscope $end
$scope module mux_3 $end
$var wire 1 \ a $end
$var wire 1 S b $end
$var wire 1 T c $end
$var wire 1 T d $end
$var wire 2 ] sel [1:0] $end
$var reg 1 ^ y $end
$upscope $end
$scope module mux_4 $end
$var wire 1 _ a $end
$var wire 1 T b $end
$var wire 1 U c $end
$var wire 1 U d $end
$var wire 2 ` sel [1:0] $end
$var reg 1 a y $end
$upscope $end
$scope module dreg_1 $end
$var wire 1 5 clk $end
$var wire 1 N d $end
$var reg 1 b q $end
$upscope $end
$scope module dreg_2 $end
$var wire 1 5 clk $end
$var wire 1 O d $end
$var reg 1 c q $end
$upscope $end
$scope module dreg_3 $end
$var wire 1 5 clk $end
$var wire 1 P d $end
$var reg 1 d q $end
$upscope $end
$scope module dreg_4 $end
$var wire 1 5 clk $end
$var wire 1 Q d $end
$var reg 1 e q $end
$upscope $end
$upscope $end
$scope module fsm $end
$var wire 1 5 clk $end
$var wire 1 9 long $end
$var wire 1 @ type $end
$var reg 2 f cmd [1:0] $end
$var reg 1 g done $end
$upscope $end
$upscope $end
$enddefinitions $end
#0
$dumpvars
0g
b1 f
xe
xd
xc
xb
xa
b1 `
0_
x^
b1 ]
0\
x[
b1 Z
0Y
xX
b1 W
0V
xU
xT
xS
xR
xQ
xP
xO
xN
xM
b1 L
bx K
bx J
bx I
b0 H
bx G
bx F
b0z E
bx D
bx C
xB
bx A
x@
bx ?
b0x >
b0x =
b0x <
b0x ;
x:
x9
z8
07
b1 6
z5
bx 4
bx 3
bx 2
b0 1
bx 0
bx /
b0 .
bx -
bx ,
x+
bx *
0)
1(
0'
b0 &
bx %
x$
x#
x"
1!
$end
#25000
0(
0!
#50000
1(
1!
#51000
b1 &
#75000
0(
0!
#100000
1(
1!
#101000
b10 &
1'
1)
b1 .
#125000
0(
0!
#150000
1(
1!
#151000
b11 &
#175000
0(
0!
#200000
1(
1!
#201000
b100 &
#225000
0(
0!
#250000
1(
1!
#251000
b101 &
#275000
0(
0!
#300000
1(
1!
#301000
b110 &
#325000
0(
0!
#350000
1(
1!
#351000
b111 &
#375000
0(
0!
#400000
1(
1!
#401000
b1000 &
0'
0)
b0 .
#425000
0(
0!
#450000
1(
1!
#451000
b1001 &
1'
1)
b1 .
#475000
0(
0!
#500000
1(
1!
#501000
b1010 &
#525000
0(
0!
#550000
1(
1!
#551000
b1011 &
0'
0)
b0 .
#575000
0(
0!
#600000
1(
1!
#601000
b1100 &
1'
1)
b1 .
#625000
0(
0!
#650000
1(
1!
#651000
b1101 &
#675000
0(
0!
#700000
1(
1!
#701000
b1110 &
0'
0)
b0 .
#725000
0(
0!
#750000
1(
1!
#751000
b1111 &
1'
1)
b1 .
#775000
0(
0!
#800000
1(
1!
#801000
b10000 &
0'
0)
b0 .
#825000
0(
0!
#850000
1(
1!
#851000
b10001 &
1'
1)
b1 .
#875000
0(
0!
#900000
1(
1!
#901000
b10010 &
0'
0)
b0 .
#925000
0(
0!
#950000
1(
1!
#951000
b10011 &
1'
1)
b1 .
#975000
0(
0!
#1000000
1(
1!
#1001000
b10100 &
#1025000
0(
0!
#1050000
1(
1!
#1051000
b10101 &
0'
0)
b0 .
#1075000
0(
0!
#1100000
1(
1!
#1101000
b10110 &
1'
1)
b1 .
#1125000
0(
0!
#1150000
1(
1!
#1151000
b10111 &
0'
0)
b0 .
#1175000
0(
0!
#1200000
1(
1!
#1201000
b11000 &
#1225000
0(
0!
#1250000
1(
1!
#1251000
b11001 &
#1275000
0(
0!
#1300000
1(
1!
#1301000
b11010 &
1'
1)
b1 .
#1325000
0(
0!
#1350000
1(
1!
#1351000
b11011 &
0'
0)
b0 .
#1375000
0(
0!
#1400000
1(
1!
#1401000
b11100 &
1'
1)
b1 .
#1425000
0(
0!
#1450000
1(
1!
#1451000
b11101 &
#1475000
0(
0!
#1500000
1(
1!
#1501000
b11110 &
#1525000
0(
0!
#1550000
1(
1!
#1551000
b11111 &
#1575000
0(
0!
#1600000
1(
1!
#1601000
b100000 &
0'
0)
b0 .
#1625000
0(
0!
#1650000
1(
1!
#1651000
b100001 &
#1675000
0(
0!
#1700000
1(
1!
#1701000
b100010 &
#1725000
0(
0!
#1750000
1(
1!
#1751000
b100011 &
#1775000
0(
0!
#1800000
1(
1!
#1801000
b100100 &
1'
1)
b1 .
#1825000
0(
0!
#1850000
1(
1!
#1851000
b100101 &
0'
0)
b0 .
#1875000
0(
0!
#1900000
1(
1!
#1901000
b100110 &
1'
1)
b1 .
#1925000
0(
0!
#1950000
1(
1!
#1951000
b100111 &
#1975000
0(
0!
#2000000
1(
1!
#2001000
b101000 &
#2025000
0(
0!
#2050000
1(
1!
#2051000
b101001 &
#2075000
0(
0!
#2100000
1(
1!
#2101000
b101010 &
#2125000
0(
0!
#2150000
1(
1!
#2151000
b101011 &
0'
0)
b0 .
#2175000
0(
0!
#2200000
1(
1!
#2201000
b101100 &
#2225000
0(
0!
#2250000
1(
1!
#2251000
b101101 &
1'
1)
b1 .
#2275000
0(
0!
#2300000
1(
1!
#2301000
b101110 &
#2325000
0(
0!
#2350000
1(
1!
#2351000
b101111 &
#2375000
0(
0!
#2400000
1(
1!
#2401000
b110000 &
0'
0)
b0 .
#2425000
0(
0!
#2450000
1(
1!
#2451000
b110001 &
#2475000
0(
0!
#2500000
1(
1!
#2501000
b110010 &
#2525000
0(
0!
#2550000
1(
1!
#2551000
b110011 &
#2575000
0(
0!
#2600000
1(
1!
#2601000
b110100 &
#2625000
0(
0!
#2650000
1(
1!
#2651000
b110101 &
1'
1)
b1 .
#2675000
0(
0!
#2700000
1(
1!
#2701000
b110110 &
0'
0)
b0 .
#2725000
0(
0!
#2750000
1(
1!
#2751000
b110111 &
#2775000
0(
0!
#2800000
1(
1!
#2801000
b111000 &
1'
1)
b1 .
#2825000
0(
0!
#2850000
1(
1!
#2851000
b111001 &
#2875000
0(
0!
#2900000
1(
1!
#2901000
b111010 &
0'
0)
b0 .
#2925000
0(
0!
#2950000
1(
1!
#2951000
b111011 &
#2975000
0(
0!
#3000000
1(
1!
#3001000
b111100 &
#3025000
0(
0!
#3050000
1(
1!
#3051000
b111101 &
#3075000
0(
0!
#3100000
1(
1!
#3101000
b111110 &
#3125000
0(
0!
#3150000
1(
1!
#3151000
b111111 &
1'
1)
b1 .
#3175000
0(
0!
#3200000
1(
1!
#3201000
b1000000 &
#3225000
0(
0!
#3250000
1(
1!
#3251000
b1000001 &
#3275000
0(
0!
#3300000
1(
1!
#3301000
b1000010 &
#3325000
0(
0!
#3350000
1(
1!
#3351000
b1000011 &
#3375000
0(
0!
#3400000
1(
1!
#3401000
b1000100 &
0'
0)
b0 .
#3425000
0(
0!
#3450000
1(
1!
#3451000
b1000101 &
#3475000
0(
0!
#3500000
1(
1!
#3501000
b1000110 &
1'
1)
b1 .
#3525000
0(
0!
#3550000
1(
1!
#3551000
b1000111 &
#3575000
0(
0!
#3600000
1(
1!
#3601000
b1001000 &
#3625000
0(
0!
#3650000
1(
1!
#3651000
b1001001 &
0'
0)
b0 .
#3675000
0(
0!
#3700000
1(
1!
#3701000
b1001010 &
#3725000
0(
0!
#3750000
1(
1!
#3751000
b1001011 &
1'
1)
b1 .
#3775000
0(
0!
#3800000
1(
1!
#3801000
b1001100 &
#3825000
0(
0!
#3850000
1(
1!
#3851000
b1001101 &
0'
0)
b0 .
#3875000
0(
0!
#3900000
1(
1!
#3901000
b1001110 &
1'
1)
b1 .
#3925000
0(
0!
#3950000
1(
1!
#3951000
b1001111 &
#3975000
0(
0!
#4000000
1(
1!
#4001000
b1010000 &
0'
0)
b0 .
#4025000
0(
0!
#4050000
1(
1!
#4051000
b1010001 &
1'
1)
b1 .
#4075000
0(
0!
#4100000
1(
1!
#4101000
b1010010 &
#4125000
0(
0!
#4150000
1(
1!
#4151000
b1010011 &
#4175000
0(
0!
#4200000
1(
1!
#4201000
b1010100 &
0'
0)
b0 .
#4225000
0(
0!
#4250000
1(
1!
#4251000
b1010101 &
1'
1)
b1 .
#4275000
0(
0!
#4300000
1(
1!
#4301000
b1010110 &
#4325000
0(
0!
#4350000
1(
1!
#4351000
b1010111 &
0'
0)
b0 .
#4375000
0(
0!
#4400000
1(
1!
#4401000
b1011000 &
#4425000
0(
0!
#4450000
1(
1!
#4451000
b1011001 &
#4475000
0(
0!
#4500000
1(
1!
#4501000
b1011010 &
#4525000
0(
0!
#4550000
1(
1!
#4551000
b1011011 &
1'
1)
b1 .
#4575000
0(
0!
#4600000
1(
1!
#4601000
b1011100 &
#4625000
0(
0!
#4650000
1(
1!
#4651000
b1011101 &
0'
0)
b0 .
#4675000
0(
0!
#4700000
1(
1!
#4701000
b1011110 &
#4725000
0(
0!
#4750000
1(
1!
#4751000
b1011111 &
1'
1)
b1 .
#4775000
0(
0!
#4800000
1(
1!
#4801000
b1100000 &
#4825000
0(
0!
#4850000
1(
1!
#4851000
b1100001 &
#4875000
0(
0!
#4900000
1(
1!
#4901000
b1100010 &
#4925000
0(
0!
#4950000
1(
1!
#4951000
b1100011 &
#4975000
0(
0!
#5000000
1(
1!
#5001000
b1100100 &
0'
0)
b0 .
#5025000
0(
0!
#5050000
1(
1!
#5051000
b1100101 &
1'
1)
b1 .
#5075000
0(
0!
#5100000
1(
1!
#5101000
b1100110 &
#5125000
0(
0!
#5150000
1(
1!
#5151000
b1100111 &
#5175000
0(
0!
#5200000
1(
1!
#5201000
b1101000 &
0'
0)
b0 .
#5225000
0(
0!
#5250000
1(
1!
#5251000
b1101001 &
#5275000
0(
0!
#5300000
1(
1!
#5301000
b1101010 &
#5325000
0(
0!
#5350000
1(
1!
#5351000
b1101011 &
#5375000
0(
0!
#5400000
1(
1!
#5401000
b1101100 &
#5425000
0(
0!
#5450000
1(
1!
#5451000
b1101101 &
#5475000
0(
0!
#5500000
1(
1!
#5501000
b1101110 &
#5525000
0(
0!
#5550000
1(
1!
#5551000
b1101111 &
1'
1)
b1 .
#5575000
0(
0!
#5600000
1(
1!
#5601000
b1110000 &
#5625000
0(
0!
#5650000
1(
1!
#5651000
b1110001 &
#5675000
0(
0!
#5700000
1(
1!
#5701000
b1110010 &
#5725000
0(
0!
#5750000
1(
1!
#5751000
b1110011 &
#5775000
0(
0!
#5800000
1(
1!
#5801000
b1110100 &
0'
0)
b0 .
#5825000
0(
0!
#5850000
1(
1!
#5851000
b1110101 &
1'
1)
b1 .
#5875000
0(
0!
#5900000
1(
1!
#5901000
b1110110 &
#5925000
0(
0!
#5950000
1(
1!
#5951000
b1110111 &
0'
0)
b0 .
#5975000
0(
0!
#6000000
1(
1!
#6001000
b1111000 &
#6025000
0(
0!
#6050000
1(
1!
#6051000
b1111001 &
1'
1)
b1 .
#6075000
0(
0!
#6100000
1(
1!
#6101000
b1111010 &
#6125000
0(
0!
#6150000
1(
1!
#6151000
b1111011 &
0'
0)
b0 .
#6175000
0(
0!
#6200000
1(
1!
#6201000
b1111100 &
1'
1)
b1 .
#6225000
0(
0!
#6250000
1(
1!
#6251000
b1111101 &
#6275000
0(
0!
#6300000
1(
1!
#6301000
b1111110 &
#6325000
0(
0!
#6350000
1(
1!
#6351000
b1111111 &
